button,1,1,danger14x1,detected,null,sticky,area,16,224
button,18,1,danger14x1,detected,null,sticky,area,16,224

block,2,1,red1x3
block,2,5,red1x3
block,2,9,red1x3
block,2,13,red
block,17,1,red1x3
block,17,5,red1x3
block,17,9,red1x3
block,17,13,red

block,3,4,force1
block,3,4.0625,force2
block,3,4.125,force3
block,3,4.1875,force4
block,3,4.25,force5
block,3,4.3125,force6
block,3,4.375,force7
block,3,4,force8

block,3,8,force1
block,3,8.0625,force2
block,3,8.125,force3
block,3,8.1875,force4
block,3,8.25,force5
block,3,8.3125,force6
block,3,8.375,force7
block,3,8,force8

block,3,12,force1
block,3,12.0625,force2
block,3,12.125,force3
block,3,12.1875,force4
block,3,12.25,force5
block,3,12.3125,force6
block,3,12.375,force7
block,3,12,force8

button,6,3,crystal,1sequence1,null,nonsticky,area,8,10
button,3,1,crystal,1sequence2,null,nonsticky,area,8,10
button,10,3,crystal,1sequence3,null,nonsticky,area,8,10
button,13,2,crystal,1sequence4,null,nonsticky,area,8,10

decoration,6,3,crystalon
decoration,3,1,crystalon
decoration,10,3,crystalon
decoration,13,2,crystalon
plat,2,1,1,2,3,17,3

button,5,5,crystal,2sequence1,null,nonsticky,area,8,10
button,11,6,crystal,2sequence2,null,nonsticky,area,8,10
button,7,5,crystal,2sequence3,null,nonsticky,area,8,10
button,15,7,crystal,2sequence4,null,nonsticky,area,8,10

decoration,5,5,crystalon
decoration,11,6,crystalon
decoration,7,5,crystalon
decoration,15,7,crystalon
plat,2,1,1,2,5,17,5

button,4,9,crystal,3sequence1,null,nonsticky,area,8,10
button,16,11,crystal,3sequence2,null,nonsticky,area,8,10
button,8,10,crystal,3sequence3,null,nonsticky,area,8,10
button,12,11,crystal,3sequence4,null,nonsticky,area,8,10

decoration,4,9,crystalon
decoration,16,11,crystalon
decoration,8,10,crystalon
decoration,12,11,crystalon
plat,2,1,2,2,9,17,9

plat,.75,1,2,2,1,17,1
plat,.75,1,2,2,6,17,6
plat,.75,1,1,2,11,17,11
script,room04

lock,1,1,14
lock,1,18,14
