door,1,3,13
block,3,1,red
block,3,2,red
block,3,3,red
decoration,2,3,candle
decoration,1,1,tapestry
decoration,1,2,ghost
lock,2.5,5,4,8,4,8,7,5,7
lock,2,10,2,10,5,13,5,13,2
lock,1,7,11,7,8,10,8,10,11
lock,1.25,13,5,13,8,16,8,16,5
lock,2,13,10,16,10,16,13,13,13
lock,5,18,6,18,6,18,6,18,6,16,6,16,8,16,10,18,10,18,10,18,10,18,10,16,10,16,8,16,6
button,18,8,red,toggle123456,null,sticky
decoration,6,5,sun
decoration,11,3,sun
decoration,8,9,sun
decoration,14,6,sun
decoration,14,11,sun
brotherbook,11.5,13
script,toggle45
