deactivate,12
deactivate,13
activate,2
activate,3
playsound,elevator
wait,1.5
deactivate,2
deactivate,3
playsound,elevator
wait,1.5
playsound,elevator
wait,1.5
playsound,elevator
wait,1.5
playsound,elevator
wait,2
playsound,elevatorstop
activate,12
activate,13
