deactivate,2
deactivate,3
deactivate,4
deactivate,5
deactivate,6
deactivate,7
deactivate,8
deactivate,9
deactivate,38
deactivate,39
deactivate,40
deactivate,41
deactivate,42
deactivate,47
deactivate,48
deactivate,49
deactivate,50
deactivate,51
deactivate,56
deactivate,57
deactivate,58
deactivate,59
deactivate,60
jump,37,11
flagoff,0
flagoff,1
flagoff,2
flagoff,3
flagoff,4
flagoff,5
flagoff,6
flagoff,7
flagoff,8
flagoff,9
flagoff,10
flagon,99
jump,100
deactivate,10
deactivate,11
deactivate,12
deactivate,13
deactivate,14
deactivate,15
deactivate,16
deactivate,17
deactivate,18
deactivate,19
deactivate,20
deactivate,21
deactivate,22
deactivate,23
deactivate,24
deactivate,25
deactivate,26
deactivate,27
deactivate,28
deactivate,29
deactivate,30
deactivate,31
deactivate,32
deactivate,33